task1/reg/reg_test.vcd
$date
  Mon Nov 27 22:07:01 2017
$end
$version
  GHDL v0
$end
$timescale
  1 fs
$end
$var reg 4 ! d[3:0] $end
$var reg 1 " ce $end
$var reg 1 # c $end
$var reg 1 $ r $end
$var reg 4 % q[3:0] $end
$scope module test_reg $end
$var reg 4 & d[3:0] $end
$var reg 1 ' ce $end
$var reg 1 ( c $end
$var reg 1 ) r $end
$var reg 4 * q[3:0] $end
$var reg 4 + s_ff[3:0] $end
$var reg 4 , r_ff[3:0] $end
$scope module (0) $end
$scope module sr $end
$var reg 1 - s $end
$var reg 1 . r $end
$var reg 1 / clk $end
$var reg 1 0 rst $end
$var reg 1 1 q $end
$upscope $end
$upscope $end
$scope module (1) $end
$scope module sr $end
$var reg 1 2 s $end
$var reg 1 3 r $end
$var reg 1 4 clk $end
$var reg 1 5 rst $end
$var reg 1 6 q $end
$upscope $end
$upscope $end
$scope module (2) $end
$scope module sr $end
$var reg 1 7 s $end
$var reg 1 8 r $end
$var reg 1 9 clk $end
$var reg 1 : rst $end
$var reg 1 ; q $end
$upscope $end
$upscope $end
$scope module (3) $end
$scope module sr $end
$var reg 1 < s $end
$var reg 1 = r $end
$var reg 1 > clk $end
$var reg 1 ? rst $end
$var reg 1 @ q $end
$upscope $end
$upscope $end
$upscope $end
$enddefinitions $end
#0
bUUUU !
1"
0#
1$
b0000 %
bUUUU &
1'
0(
1)
b0000 *
bUUUU +
bUUUU ,
U-
U.
0/
10
01
U2
U3
04
15
06
U7
U8
09
1:
0;
U<
U=
0>
1?
0@
#100000000
b1010 !
0$
b1010 &
0)
b1010 +
b0101 ,
0-
1.
00
12
03
05
07
18
0:
1<
0=
0?
#200000000
1#
b1010 %
1(
b1010 *
1/
14
16
19
1>
1@
#300000000
0#
0(
0/
04
09
0>
#400000000
1#
1$
b0000 %
1(
1)
b0000 *
1/
10
14
15
06
19
1:
1>
1?
0@
#500000000
0#
0$
0(
0)
0/
00
04
05
09
0:
0>
0?
#600000000
b0101 !
b0101 &
b0101 +
b1010 ,
1-
0.
02
13
17
08
0<
1=
#700000000
1#
b0101 %
1(
b0101 *
1/
11
14
19
1;
1>
#800000000
0"
0#
0'
0(
0/
04
09
0>
#900000000
1#
1(
1/
14
19
1>
#1000000000
0#
0(
0/
04
09
0>
#1100000000
1#
1(
1/
14
19
1>
#1200000000
1"
0#
1'
0(
0/
04
09
0>
#1300000000
b1001 !
b1001 &
b1001 +
b0110 ,
07
18
1<
0=
#1400000000
1#
b1001 %
1(
b1001 *
1/
14
19
0;
1>
1@
#1500000000
0"
0#
0'
0(
0/
04
09
0>
#1600000000
1#
1(
1/
14
19
1>
#1700000000
1"
0#
1$
b0000 %
1'
0(
1)
b0000 *
0/
10
01
04
15
09
1:
0>
1?
0@
#1800000000
b1010 !
0$
b1010 &
0)
b1010 +
b0101 ,
0-
1.
00
12
03
05
0:
0?
#1900000000
1#
b1010 %
1(
b1010 *
1/
14
16
19
1>
1@
#2000000000
0#
0(
0/
04
09
0>
#2100000000
1#
1$
b0000 %
1(
1)
b0000 *
1/
10
14
15
06
19
1:
1>
1?
0@
#2200000000
0#
0$
0(
0)
0/
00
04
05
09
0:
0>
0?
#2300000000
b0101 !
b0101 &
b0101 +
b1010 ,
1-
0.
02
13
17
08
0<
1=
#2400000000
1#
b0101 %
1(
b0101 *
1/
11
14
19
1;
1>
#2500000000
0"
0#
0'
0(
0/
04
09
0>
#2600000000
1#
1(
1/
14
19
1>
#2700000000
0#
0(
0/
04
09
0>
#2800000000
1#
1(
1/
14
19
1>
#2900000000
1"
0#
1'
0(
0/
04
09
0>
#3000000000
b1001 !
b1001 &
b1001 +
b0110 ,
07
18
1<
0=
#3100000000
1#
b1001 %
1(
b1001 *
1/
14
19
0;
1>
1@
#3200000000
0"
0#
0'
0(
0/
04
09
0>
#3300000000
1#
1(
1/
14
19
1>
#3400000000
1"
0#
1$
b0000 %
1'
0(
1)
b0000 *
0/
10
01
04
15
09
1:
0>
1?
0@
#3500000000
b1010 !
0$
b1010 &
0)
b1010 +
b0101 ,
0-
1.
00
12
03
05
0:
0?
#3600000000
1#
b1010 %
1(
b1010 *
1/
14
16
19
1>
1@
#3700000000
0#
0(
0/
04
09
0>
#3800000000
1#
1$
b0000 %
1(
1)
b0000 *
1/
10
14
15
06
19
1:
1>
1?
0@
#3900000000
0#
0$
0(
0)
0/
00
04
05
09
0:
0>
0?
#4000000000
b0101 !
b0101 &
b0101 +
b1010 ,
1-
0.
02
13
17
08
0<
1=
#4100000000
1#
b0101 %
1(
b0101 *
1/
11
14
19
1;
1>
#4200000000
0"
0#
0'
0(
0/
04
09
0>
#4300000000
1#
1(
1/
14
19
1>
#4400000000
0#
0(
0/
04
09
0>
#4500000000
1#
1(
1/
14
19
1>
#4600000000
1"
0#
1'
0(
0/
04
09
0>
#4700000000
b1001 !
b1001 &
b1001 +
b0110 ,
07
18
1<
0=
#4800000000
1#
b1001 %
1(
b1001 *
1/
14
19
0;
1>
1@
#4900000000
0"
0#
0'
0(
0/
04
09
0>
#5000000000
1#
1(
1/
14
19
1>
