task2/alu/alu_test.vcd
$date
  Mon Jan 01 15:41:30 2018
$end
$version
  GHDL v0
$end
$timescale
  1 fs
$end
$var reg 4 ! a[3:0] $end
$var reg 4 " b[3:0] $end
$var reg 2 # s[1:0] $end
$var reg 4 $ res[3:0] $end
$var reg 1 % co $end
$scope module alu_comp $end
$var reg 4 & a[3:0] $end
$var reg 4 ' b[3:0] $end
$var reg 2 ( s[1:0] $end
$var reg 4 ) res[3:0] $end
$var reg 1 * co $end
$var reg 4 + shl[3:0] $end
$var reg 4 , shr[3:0] $end
$var reg 4 - comp[3:0] $end
$var reg 4 . add_out[3:0] $end
$scope module adder $end
$var reg 4 / a[3:0] $end
$var reg 4 0 b[3:0] $end
$var reg 1 1 cin $end
$var reg 4 2 y[3:0] $end
$var reg 1 3 co $end
$var reg 4 4 carry[3:0] $end
$scope module adder_0 $end
$var reg 1 5 a $end
$var reg 1 6 b $end
$var reg 1 7 cin $end
$var reg 1 8 s $end
$var reg 1 9 cout $end
$upscope $end
$scope module (1) $end
$scope module adder_i $end
$var reg 1 : a $end
$var reg 1 ; b $end
$var reg 1 < cin $end
$var reg 1 = s $end
$var reg 1 > cout $end
$upscope $end
$upscope $end
$scope module (2) $end
$scope module adder_i $end
$var reg 1 ? a $end
$var reg 1 @ b $end
$var reg 1 A cin $end
$var reg 1 B s $end
$var reg 1 C cout $end
$upscope $end
$upscope $end
$scope module (3) $end
$scope module adder_i $end
$var reg 1 D a $end
$var reg 1 E b $end
$var reg 1 F cin $end
$var reg 1 G s $end
$var reg 1 H cout $end
$upscope $end
$upscope $end
$upscope $end
$scope module (0) $end
$scope module B1 $end
$upscope $end
$upscope $end
$scope module (1) $end
$scope module B1 $end
$upscope $end
$scope module B1 $end
$upscope $end
$upscope $end
$scope module (2) $end
$scope module B1 $end
$upscope $end
$scope module B1 $end
$upscope $end
$upscope $end
$scope module (3) $end
$scope module B1 $end
$upscope $end
$upscope $end
$upscope $end
$enddefinitions $end
#0
b0000 !
b0010 "
b00 #
b0010 $
0%
b0000 &
b0010 '
b00 (
b0010 )
0*
b0000 +
b0000 ,
b1111 -
b0010 .
b0000 /
b0010 0
01
b0010 2
03
b0000 4
05
06
07
08
09
0:
1;
0<
1=
0>
0?
0@
0A
0B
0C
0D
0E
0F
0G
0H
#100000000
b01 #
b0000 $
b01 (
b0000 )
#200000000
b10 #
b10 (
#300000000
b11 #
b1111 $
b11 (
b1111 )
#400000000
b0001 !
b0011 "
b00 #
b0100 $
b0001 &
b0011 '
b00 (
b0100 )
b0010 +
b1110 -
b0100 .
b0001 /
b0011 0
b0100 2
b0011 4
15
16
19
1<
0=
1>
1A
1B
#500000000
b01 #
b0000 $
b01 (
b0000 )
#600000000
b10 #
b0010 $
b10 (
b0010 )
#700000000
b11 #
b1110 $
b11 (
b1110 )
#800000000
b0010 !
b0100 "
b00 #
b0110 $
b0010 &
b0100 '
b00 (
b0110 )
b0100 +
b0001 ,
b1101 -
b0110 .
b0010 /
b0100 0
b0110 2
b0000 4
05
06
09
1:
0;
0<
1=
0>
1@
0A
1B
0C
0F
0G
#900000000
b01 #
b0001 $
b01 (
b0001 )
#1000000000
b10 #
b0100 $
b10 (
b0100 )
#1100000000
b11 #
b1101 $
b11 (
b1101 )
#1200000000
b0011 !
b0101 "
b00 #
b1000 $
b0011 &
b0101 '
b00 (
b1000 )
b0110 +
b1100 -
b1000 .
b0011 /
b0101 0
b1000 2
b0111 4
15
16
19
1<
0=
1>
1A
0B
1C
1F
1G
#1300000000
b01 #
b0001 $
b01 (
b0001 )
#1400000000
b10 #
b0110 $
b10 (
b0110 )
#1500000000
b11 #
b1100 $
b11 (
b1100 )
#1600000000
b0100 !
b0110 "
b00 #
b1010 $
b0100 &
b0110 '
b00 (
b1010 )
b1000 +
b0010 ,
b1011 -
b1010 .
b0100 /
b0110 0
b1010 2
b0100 4
05
06
09
0:
1;
0<
1=
0>
1?
0A
0B
#1700000000
b01 #
b0010 $
b01 (
b0010 )
#1800000000
b10 #
b1000 $
b10 (
b1000 )
#1900000000
b11 #
b1011 $
b11 (
b1011 )
#2000000000
b0101 !
b0111 "
b00 #
b1100 $
b0101 &
b0111 '
b00 (
b1100 )
b1010 +
b1010 -
b1100 .
b0101 /
b0111 0
b1100 2
b0111 4
15
16
19
1<
0=
1>
1A
1B
#2100000000
b01 #
b0010 $
b01 (
b0010 )
#2200000000
b10 #
b1010 $
b10 (
b1010 )
#2300000000
b11 #
b11 (
#2400000000
b0110 !
b1000 "
b00 #
b1110 $
0%
b0110 &
b1000 '
b00 (
b1110 )
0*
b1100 +
b0011 ,
b1001 -
b1110 .
b0110 /
b1000 0
b1110 2
03
b0000 4
05
06
09
1:
0;
0<
1=
0>
0@
0A
1B
0C
1E
0F
1G
0H
#2500000000
b01 #
b0011 $
b01 (
b0011 )
#2600000000
b10 #
b1100 $
b10 (
b1100 )
#2700000000
b11 #
b1001 $
b11 (
b1001 )
#2800000000
b0111 !
b1001 "
b00 #
b0000 $
1%
b0111 &
b1001 '
b00 (
b0000 )
1*
b1110 +
b1000 -
b0000 .
b0111 /
b1001 0
b0000 2
13
b1111 4
15
16
19
1<
0=
1>
1A
0B
1C
1F
0G
1H
#2900000000
b01 #
b0011 $
b01 (
b0011 )
#3000000000
b10 #
b1110 $
b10 (
b1110 )
#3100000000
b11 #
b1000 $
b11 (
b1000 )
#3200000000
b1000 !
b1010 "
b00 #
b0010 $
b1000 &
b1010 '
b00 (
b0010 )
b0000 +
b0100 ,
b0111 -
b0010 .
b1000 /
b1010 0
b0010 2
b1000 4
05
06
09
0:
1;
0<
1=
0>
0?
0A
0B
0C
1D
0F
0G
#3300000000
b01 #
b0100 $
b01 (
b0100 )
#3400000000
b10 #
b0000 $
b10 (
b0000 )
#3500000000
b11 #
b0111 $
b11 (
b0111 )
#3600000000
b1001 !
b1011 "
b00 #
b0100 $
b1001 &
b1011 '
b00 (
b0100 )
b0010 +
b0110 -
b0100 .
b1001 /
b1011 0
b0100 2
b1011 4
15
16
19
1<
0=
1>
1A
1B
#3700000000
b01 #
b01 (
#3800000000
b10 #
b0010 $
b10 (
b0010 )
#3900000000
b11 #
b0110 $
b11 (
b0110 )
#4000000000
b1010 !
b1100 "
b00 #
b0110 $
b1010 &
b1100 '
b00 (
b0110 )
b0100 +
b0101 ,
b0101 -
b0110 .
b1010 /
b1100 0
b0110 2
b1000 4
05
06
09
1:
0;
0<
1=
0>
1@
0A
1B
0C
0F
0G
#4100000000
b01 #
b0101 $
b01 (
b0101 )
#4200000000
b10 #
b0100 $
b10 (
b0100 )
#4300000000
b11 #
b0101 $
b11 (
b0101 )
#4400000000
b1011 !
b1101 "
b00 #
b1000 $
b1011 &
b1101 '
b00 (
b1000 )
b0110 +
b0100 -
b1000 .
b1011 /
b1101 0
b1000 2
b1111 4
15
16
19
1<
0=
1>
1A
0B
1C
1F
1G
#4500000000
b01 #
b0101 $
b01 (
b0101 )
#4600000000
b10 #
b0110 $
b10 (
b0110 )
#4700000000
b11 #
b0100 $
b11 (
b0100 )
#4800000000
b1100 !
b1110 "
b00 #
b1010 $
b1100 &
b1110 '
b00 (
b1010 )
b1000 +
b0110 ,
b0011 -
b1010 .
b1100 /
b1110 0
b1010 2
b1100 4
05
06
09
0:
1;
0<
1=
0>
1?
0A
0B
#4900000000
b01 #
b0110 $
b01 (
b0110 )
#5000000000
b10 #
b1000 $
b10 (
b1000 )
