task4/instruction-decoder/test.vcd
$date
  Mon Jan 01 15:30:47 2018
$end
$version
  GHDL v0
$end
$timescale
  1 fs
$end
$var reg 3 ! opc[2:0] $end
$var reg 8 " control[7:0] $end
$scope module test_id $end
$var reg 3 # opc[2:0] $end
$var reg 8 $ control[7:0] $end
$var reg 1 % reg_b_ce $end
$var reg 1 & reg_a_ce $end
$var reg 1 ' mux_b_s $end
$var reg 1 ( mux_a_s $end
$var reg 2 ) alu_s[1:0] $end
$var reg 1 * pc_ld $end
$var reg 1 + status_ce $end
$upscope $end
$enddefinitions $end
#0
b000 !
b10000010 "
b000 #
b10000010 $
0%
1&
0'
0(
b00 )
0*
1+
#100000000
b001 !
b00010110 "
b001 #
b00010110 $
1'
b01 )
0+
#200000000
b010 !
b00100010 "
b010 #
b00100010 $
0'
b10 )
#300000000
b011 !
b00110110 "
b011 #
b00110110 $
1'
b11 )
#400000000
b100 !
b00001010 "
b100 #
b00001010 $
0'
1(
b00 )
#500000000
b101 !
b00011101 "
b101 #
b00011101 $
1%
0&
1'
b01 )
#600000000
b110 !
b00101001 "
b110 #
b00101001 $
0'
b10 )
#700000000
b111 !
b01111100 "
b111 #
b01111100 $
0%
1'
b11 )
1*
#800000000
b000 !
b10000010 "
b000 #
b10000010 $
1&
0'
0(
b00 )
0*
1+
#900000000
#1000000000
b001 !
b00010110 "
b001 #
b00010110 $
1'
b01 )
0+
#1100000000
b010 !
b00100010 "
b010 #
b00100010 $
0'
b10 )
#1200000000
b011 !
b00110110 "
b011 #
b00110110 $
1'
b11 )
#1300000000
b100 !
b00001010 "
b100 #
b00001010 $
0'
1(
b00 )
#1400000000
b101 !
b00011101 "
b101 #
b00011101 $
1%
0&
1'
b01 )
#1500000000
b110 !
b00101001 "
b110 #
b00101001 $
0'
b10 )
#1600000000
b111 !
b01111100 "
b111 #
b01111100 $
0%
1'
b11 )
1*
#1700000000
b000 !
b10000010 "
b000 #
b10000010 $
1&
0'
0(
b00 )
0*
1+
#1800000000
#1900000000
b001 !
b00010110 "
b001 #
b00010110 $
1'
b01 )
0+
#2000000000
b010 !
b00100010 "
b010 #
b00100010 $
0'
b10 )
#2100000000
b011 !
b00110110 "
b011 #
b00110110 $
1'
b11 )
#2200000000
b100 !
b00001010 "
b100 #
b00001010 $
0'
1(
b00 )
#2300000000
b101 !
b00011101 "
b101 #
b00011101 $
1%
0&
1'
b01 )
#2400000000
b110 !
b00101001 "
b110 #
b00101001 $
0'
b10 )
#2500000000
b111 !
b01111100 "
b111 #
b01111100 $
0%
1'
b11 )
1*
#2600000000
b000 !
b10000010 "
b000 #
b10000010 $
1&
0'
0(
b00 )
0*
1+
#2700000000
#2800000000
b001 !
b00010110 "
b001 #
b00010110 $
1'
b01 )
0+
#2900000000
b010 !
b00100010 "
b010 #
b00100010 $
0'
b10 )
#3000000000
b011 !
b00110110 "
b011 #
b00110110 $
1'
b11 )
#3100000000
b100 !
b00001010 "
b100 #
b00001010 $
0'
1(
b00 )
#3200000000
b101 !
b00011101 "
b101 #
b00011101 $
1%
0&
1'
b01 )
#3300000000
b110 !
b00101001 "
b110 #
b00101001 $
0'
b10 )
#3400000000
b111 !
b01111100 "
b111 #
b01111100 $
0%
1'
b11 )
1*
#3500000000
b000 !
b10000010 "
b000 #
b10000010 $
1&
0'
0(
b00 )
0*
1+
#3600000000
#3700000000
b001 !
b00010110 "
b001 #
b00010110 $
1'
b01 )
0+
#3800000000
b010 !
b00100010 "
b010 #
b00100010 $
0'
b10 )
#3900000000
b011 !
b00110110 "
b011 #
b00110110 $
1'
b11 )
#4000000000
b100 !
b00001010 "
b100 #
b00001010 $
0'
1(
b00 )
#4100000000
b101 !
b00011101 "
b101 #
b00011101 $
1%
0&
1'
b01 )
#4200000000
b110 !
b00101001 "
b110 #
b00101001 $
0'
b10 )
#4300000000
b111 !
b01111100 "
b111 #
b01111100 $
0%
1'
b11 )
1*
#4400000000
b000 !
b10000010 "
b000 #
b10000010 $
1&
0'
0(
b00 )
0*
1+
#4500000000
#4600000000
b001 !
b00010110 "
b001 #
b00010110 $
1'
b01 )
0+
#4700000000
b010 !
b00100010 "
b010 #
b00100010 $
0'
b10 )
#4800000000
b011 !
b00110110 "
b011 #
b00110110 $
1'
b11 )
#4900000000
b100 !
b00001010 "
b100 #
b00001010 $
0'
1(
b00 )
#5000000000
b101 !
b00011101 "
b101 #
b00011101 $
1%
0&
1'
b01 )
#5100000000
b110 !
b00101001 "
b110 #
b00101001 $
0'
b10 )
#5200000000
b111 !
b01111100 "
b111 #
b01111100 $
0%
1'
b11 )
1*
#5300000000
b000 !
b10000010 "
b000 #
b10000010 $
1&
0'
0(
b00 )
0*
1+
#5400000000
#5500000000
b001 !
b00010110 "
b001 #
b00010110 $
1'
b01 )
0+
#5600000000
b010 !
b00100010 "
b010 #
b00100010 $
0'
b10 )
#5700000000
b011 !
b00110110 "
b011 #
b00110110 $
1'
b11 )
#5800000000
b100 !
b00001010 "
b100 #
b00001010 $
0'
1(
b00 )
#5900000000
b101 !
b00011101 "
b101 #
b00011101 $
1%
0&
1'
b01 )
#6000000000
b110 !
b00101001 "
b110 #
b00101001 $
0'
b10 )
#6100000000
b111 !
b01111100 "
b111 #
b01111100 $
0%
1'
b11 )
1*
#6200000000
b000 !
b10000010 "
b000 #
b10000010 $
1&
0'
0(
b00 )
0*
1+
#6300000000
#6400000000
b001 !
b00010110 "
b001 #
b00010110 $
1'
b01 )
0+
#6500000000
b010 !
b00100010 "
b010 #
b00100010 $
0'
b10 )
#6600000000
b011 !
b00110110 "
b011 #
b00110110 $
1'
b11 )
#6700000000
b100 !
b00001010 "
b100 #
b00001010 $
0'
1(
b00 )
#6800000000
b101 !
b00011101 "
b101 #
b00011101 $
1%
0&
1'
b01 )
